{
    "/js/admin.js": "/js/admin.js",
    "/js/app.js": "/js/app.js",
    "/css/app.css": "/css/app.css",
    "/css/admin.css": "/css/admin.css",
    "/js/change_model_reports.js": "/js/change_model_reports.js",
    "/js/dashboard.js": "/js/dashboard.js",
    "/js/home.js": "/js/home.js",
    "/js/lost_time_reports.js": "/js/lost_time_reports.js",
    "/js/operation_summaries.js": "/js/operation_summaries.js",
    "/js/report.js": "/js/report.js",
    "/js/trial_ng_sets.js": "/js/trial_ng_sets.js"
}
